{
    "status": "ok",
    "total_hits": 914,
    "page": 1,
    "total_pages": 92,
    "page_size": 10,
    "articles": [
        {
            "title": "Tesla's Elon Musk Wants to Adopt Apple's AirPlay for Improved Sound System in Vehicles",
            "author": "Sophie Webster",
            "published_date": "2022-05-31 16:55:00",
            "published_date_precision": "full",
            "link": "https://www.techtimes.com/articles/276139/20220531/teslas-elon-musk-adopt-apples-airplay-improved-sound-system-vehicles.htm",
            "clean_url": "techtimes.com",
            "excerpt": "Since Tesla vehicles have Wi-Fi capability, it is possible for Apple AirPlay to be used.",
            "summary": "Sophie Webster, Tech Times 31 May 2022, 12:05 pm (Photo : Unsplash/David von Diemar) Tesla Tesla CEO and billionaire Elon Musk confirmed that the car company is currently considering adopting Apple's AirPlay protocol to help improve the audio quality of the vehicles over its current Bluetooth connection.  Tesla to Adopt Apple's AirPlay According to Electrek, Tesla's recent vehicles have been received well by critics and customers, especially the Model 3 and Model S. The positive reviews over its sound quality are all thanks to the audio engineers from Bang & Olufsen and other audio manufacturing companies.",
            "rights": "All articles are copyrighted by Tech Times",
            "rank": 2599,
            "topic": "tech",
            "country": "US",
            "language": "en",
            "authors": ["Sophie Webster"],
            "media": "https://1734811051.rsc.cdn77.org/data/images/full/405835/tesla.png",
            "is_opinion": false,
            "twitter_account": "@TechTimes_News",
            "_score": 19.99941,
            "_id": "69b661743369d583347c4cfaabc6be4a"
        },
        {
            "title": "Could Tesla Bring Apple AirPlay To Cars? Here's What Elon Musk Said",
            "author": null,
            "published_date": "2022-05-31 19:05:45",
            "published_date_precision": "timezone unknown",
            "link": "https://www.newsbreak.com/news/2621046676556/could-tesla-bring-apple-airplay-to-cars-here-s-what-elon-musk-said",
            "clean_url": "newsbreak.com",
            "excerpt": "Offerings from two of the most valuable companies in the world could soon be united, according to Tesla Inc TSLA CEO Elon Musk. What Happened: Musk is considering putting the AirPlay protocol from…",
            "summary": "#Vehicles#Tesla Owners#Tesla Inc Tsla#Airplay#Apple Inc Aapl#Twitter#Wi FiTerms of UsePrivacy PolicyDo Not Sell My InfoHelp CenterAboutBenzingaOfferings from two of the most valuable companies in the world could soon be united, according to Tesla Inc TSLA CEO Elon Musk. What Happened: Musk is considering putting the AirPlay protocol from Apple Inc AAPL inside Tesla vehicles. As reported by Electrek, Musk said he is considering Apple's...www.benzinga.com",
            "rights": "newsbreak.com",
            "rank": 4828,
            "topic": "news",
            "country": "PH",
            "language": "en",
            "authors": [],
            "media": "https://img.particlenews.com/img/id/3TgL7e_0fw1O37u00?type=thumbnail_1200x627&limit=20",
            "is_opinion": false,
            "twitter_account": "@newsbreak",
            "_score": 19.835712,
            "_id": "60810d91df687487742ef5745f85c473"
        },
        {
            "title": "Tesla Could Adopt Apple's AirPlay To Improve In-Car Audio",
            "author": "Sahil Gupta",
            "published_date": "2022-06-01 04:07:28",
            "published_date_precision": "full",
            "link": "https://www.carandbike.com/news/tesla-could-adopt-apples-airplay-to-improve-in-car-audio-3026101",
            "clean_url": "carandbike.com",
            "excerpt": "Tesla could be exploring the adoption of the Apple AirPlay protocol for lossless audio in its vehicles",
            "summary": "By  Sahil Gupta | Updated: 01-Jun-22 09:37 AM IST 0  Views View Photos Musk is contemplating the addition of AirPlay in Tesla cars Highlights Tesla has been reticent towards Apple CarPlay AirPlay enables lossless audio via Wi-Fi Elon Musk said he will discuss it with the audio team Tesla has often bashed Apple with Elon Musk claiming that the Cupertino-based tech giant is a graveyard of ex-Tesla engineers. Tesla has also famously not adopted Apple's phone streaming technology called CarPlay, but Elon Musk could be warming up to the idea of Apple's Airplay audio streaming technology which works over Wi-Fi for gadgets like the Apple TV and HomePod.",
            "rights": "carandbike.com",
            "rank": 49235,
            "topic": "news",
            "country": "US",
            "language": "en",
            "authors": ["Sahil Gupta"],
            "media": "https://c.ndtvimg.com/2022-04/kfgvb8j_tesla-bitcoin_625x300_17_April_22.jpg",
            "is_opinion": false,
            "twitter_account": "@carandbike",
            "_score": 19.605938,
            "_id": "055e8400e5aef55106529b05aba9e5d1"
        },
        {
            "title": "Tesla cars could get Apple's AirPlay to improve audio quality",
            "author": "Meghana Kandra",
            "published_date": "2022-05-31 16:44:50",
            "published_date_precision": "full",
            "link": "https://techstory.in/tesla-cars-could-get-apples-airplay-to-improve-audio-quality/",
            "clean_url": "techstory.in",
            "excerpt": "Elon Musk is considering that Tesla could have better audio quality with Apple's AirPlay, over the current Bluetooth.",
            "summary": "Elon Musk is considering that Tesla could have better audio quality with Apple's AirPlay. Over the current Bluetooth, the quality may not be up-to-the-mark. Over years Tesla has been working on improving the quality in the best possible ways.\nImage credits- Electrek\nThe Model 3 sound system is said to be well received by audiophiles. Also, the new sound system version in Model S has some positive reviews. It was compared to Bang & Olufsen system, which is used in premium vehicles at an additional price.",
            "rights": "techstory.in",
            "rank": 23310,
            "topic": "news",
            "country": "IN",
            "language": "en",
            "authors": [
                "Currently Finishing My Master'S In Journalism",
                "Mass Communication. My Interests Surround Around Electric Vehicles",
                "Clean Energy With A Little Bit On Their Stock Market Values. I Am An Optimist",
                "A Keen Explorer."
            ],
            "media": "https://electrek.co/wp-content/uploads/sites/3/2020/03/Tesla-ap-delivery-process.jpg?quality=82&strip=all&w=1600",
            "is_opinion": false,
            "twitter_account": "@techstoryin",
            "_score": 19.48364,
            "_id": "e695e04eb97bce2ecd82f7c5a4320756"
        },
        {
            "title": "Tesla Considering Adopting Apple's AirPlay to Improve Audio Quality",
            "author": "info@hypebeast.com (HYPEBEAST)",
            "published_date": "2022-06-01 07:53:37",
            "published_date_precision": "full",
            "link": "https://hypebeast.com/2022/6/tesla-considering-to-adopt-apples-airplay-to-improve-audio-quality",
            "clean_url": "hypebeast.com",
            "excerpt": "Confirmed by Elon Musk.",
            "summary": "Elon Musk has said that Tesla will consider adopting Apple‘s AirPlay protocol to improve their audio quality control over the current Bluetooth system.\nOver the past years, Tesla emphasized their passion for sound systems by ensuring its vehicles have the utmost sound quality. Their latest version of the Model S and Model 3 has received positive comments from audiophiles.\nIn the past, Tesla's audio system has always been compared to a Bang & Olufsen system, which is often found in premium vehicles, however, for a fraction of the price.",
            "rights": "hypebeast.com",
            "rank": 2577,
            "topic": "entertainment",
            "country": "US",
            "language": "en",
            "authors": [
                "i",
                "n",
                "f",
                "o",
                "@",
                "h",
                "y",
                "p",
                "e",
                "b",
                "e",
                "a",
                "s",
                "t",
                ".",
                "c",
                "o",
                "m",
                " ",
                "(",
                "H",
                "Y",
                "P",
                "E",
                "B",
                "E",
                "A",
                "S",
                "T",
                ")"
            ],
            "media": "https://image-cdn.hypb.st/https%3A%2F%2Fhypebeast.com%2Fimage%2F2022%2F05%2Ftw-tesla-considering-to-adopt-apples-airplay-to-improve-audio-quality.jpg?w=960&cbr=1&q=90&fit=max",
            "is_opinion": false,
            "twitter_account": "@hypebeast",
            "_score": 19.473894,
            "_id": "097b3229643a5fc537d63441ca646f47"
        },
        {
            "title": "Tesla is considering adopting Apple's Airplay to improve audio quality",
            "author": "Fred Lambert",
            "published_date": "2022-05-31 09:56:28",
            "published_date_precision": "full",
            "link": "https://electrek.co/2022/05/31/tesla-apple-airplay-improve-audio-quality/",
            "clean_url": "electrek.co",
            "excerpt": "Elon Musk said that Tesla is going to consider adopting Apple's Airplay protocol to improve audio quality over the current Bluetooth. In recent years, Tesla has put an emphasis on the sound system…",
            "summary": "Elon Musk said that Tesla is going to consider adopting Apple's Airplay protocol to improve audio quality over the current Bluetooth. In recent years, Tesla has put an emphasis on the sound system inside its vehicles.\nThe sound system in the Model 3 has been well-received by audiophiles, and the one in the new version of the Model S has also received positive reviews.\nIt has been compared to an expensive Bang & Olufsen system often found in premium vehicles, but for a fraction of the price.\nWhen a reviewer made the comparison on Twitter, Tesla CEO Elon Musk commented:\n\nTesla audio engineers come from B&O & many other companies.",
            "rights": "electrek.co",
            "rank": 3133,
            "topic": "news",
            "country": "US",
            "language": "en",
            "authors": [
                "Zalkon Green Stock Ideas",
                "Get Interesting Investment Ideas Fred Lambert",
                "Chargepoint Home Charger",
                "Chargepoint Home Wifi Enabled Electric Vehicle",
                "Ev"
            ],
            "media": "https://i0.wp.com/electrek.co/wp-content/uploads/sites/3/2020/03/Tesla-ap-delivery-process.jpg?resize=1200%2C628&quality=82&strip=all&ssl=1",
            "is_opinion": false,
            "twitter_account": "@electrekco",
            "_score": 19.459442,
            "_id": "e87702e53fb16f78dc77cc04db521058"
        },
        {
            "title": "Tesla to End Work From Home Privileges For Employees, Elon Musk Confirms",
            "author": "Sophie Webster",
            "published_date": "2022-06-01 14:50:00",
            "published_date_precision": "full",
            "link": "https://www.techtimes.com/articles/276183/20220601/tesla-ceo-elon-musk-ends-remote-work-staff.htm",
            "clean_url": "techtimes.com",
            "excerpt": "Musk wrote in an email that employees who won't show up in the office would be fired. Two years after the COVID-19 pandemic, businesses are now discontinuing their employees' work-from-home…",
            "summary": "Sophie Webster, Tech Times 01 June 2022, 10:06 am (Photo : GettyImages/ Dimitrios Kambouris) Elon Musk Two years after the COVID-19 pandemic, businesses are now discontinuing their employees' work-from-home privileges. The latest company to announce that it is ending remote work is Tesla. The automaker's CEO Elon Musk reportedly sent an email to Tesla's executive staff with a subject line that says the company will no longer accept remote work. Tesla to End Work From Home Privileges According to Bloomberg, Musk wants the automaker's employees to spend at least 40 hours per week in the office, or they could get fired.",
            "rights": "All articles are copyrighted by Tech Times",
            "rank": 2599,
            "topic": "tech",
            "country": "US",
            "language": "en",
            "authors": ["Sophie Webster"],
            "media": "https://1734811051.rsc.cdn77.org/data/images/full/405889/elon-musk.jpg",
            "is_opinion": false,
            "twitter_account": "@TechTimes_News",
            "_score": 19.22092,
            "_id": "1f384ae0923bc6962690d74afa78f89e"
        },
        {
            "title": "Tesla Could Adopt Apple AirPlay to Improve its Speaker Systems (Sorry, Still No CarPlay)",
            "author": null,
            "published_date": "2022-05-31 18:45:00",
            "published_date_precision": "full",
            "link": "https://gizmodo.com/elon-musk-tesla-apple-airplay-carplay-audio-car-wifi-bl-1848996205",
            "clean_url": "gizmodo.com",
            "excerpt": "Elon Musk said he'd talk to Tesla's audio engineering team about switching from Bluetooth to Wi-Fi.",
            "summary": "Tesla could one day bring Apple technology to the cabin of its electric cars. Before I go any further: CarPlay isn't coming to save you from using Tesla's operating system. Rather, the automaker is discussing ways of improving its already excellent sound system by using AirPlay instead of Bluetooth.Twitter user ShibaDoge proposed last week that Tesla use AirPlay for lossless audio streaming. Tesla CEO Elon Musk responded, stating that he'd discuss the idea (and other improvements) with Tesla's audio engineering team.",
            "rights": "gizmodo.com",
            "rank": 350,
            "topic": "tech",
            "country": "US",
            "language": "en",
            "authors": [],
            "media": "https://i.kinja-img.com/gawker-media/image/upload/c_fill,f_auto,fl_progressive,g_center,h_675,pg_1,q_80,w_1200/05075a315f40b6769a4886ceb79b143b.jpg",
            "is_opinion": false,
            "twitter_account": "gizmodo",
            "_score": 19.05053,
            "_id": "7ec98930e7ebe26d9bf1d73539f05dff"
        },
        {
            "title": "Tesla's Elon Musk Hints Apple AirPlay, Lossless Music Support",
            "author": "Teejay",
            "published_date": "2022-05-30 02:01:06",
            "published_date_precision": "full",
            "link": "https://www.itechpost.com/articles/110984/20220529/tesla-elon-musk-apple-airplay-lossless-music-tesla-elon-musk-apple.htm",
            "clean_url": "itechpost.com",
            "excerpt": "Tesla's Elon Musk says Apple AirPlay and lossless music support will be discussed with the electric vehicle (EV) maker's audio team.",
            "summary": "Tesla CEO Elon Musk says that his audio team will discuss Apple AirPlay and lossless quality music support, along with other auditory improvements. (Photo : Frederic J. Brown/Getty Images) Tesla CEO Elon Musk speaks during the unveiling of the new Tesla Model Y in Hawthorne, California on March 14, 2019. The founder of the electric-focused carmaker also took the opportunity to praise the sound system of both the Tesla Model S sedan and the Model X SUV. Elon Musk and Tesla The billionaire tech entrepreneur, Musk, has massive roles in his ambitious firms, such as SpaceX and Tesla, as both continue to bring disruptive innovations to consumers these days.",
            "rights": "itechpost.com",
            "rank": 43708,
            "topic": "news",
            "country": "US",
            "language": "en",
            "authors": ["Teejay"],
            "media": "https://1401700980.rsc.cdn77.org/data/images/full/105223/tesla-s-elon-musk-hints-apple-airplay-lossless-music-support.jpg",
            "is_opinion": false,
            "twitter_account": "@itechpost",
            "_score": 19.00694,
            "_id": "fce4c2ed980ccdac9ddcda5518a8b5df"
        },
        {
            "title": "Tesla Could Adopt Apple AirPlay to Improve its Speaker Systems (Sorry, Still No CarPlay)",
            "author": "Phillip Tracy",
            "published_date": "2022-05-31 18:45:00",
            "published_date_precision": "full",
            "link": "https://www.gizmodo.com.au/2022/06/tesla-could-adopt-apple-airplay-to-improve-its-speaker-systems-sorry-still-no-carplay/",
            "clean_url": "gizmodo.com.au",
            "excerpt": "Tesla could one day bring Apple technology to the cabin of its electric cars. Before I go any further: CarPlay...",
            "summary": "Tesla (Photo: Robert Alexander, Getty Images) Tesla could one day bring Apple technology to the cabin of its electric cars. Before I go any further: CarPlay isn't coming to save you from using Tesla's operating system. Rather, the automaker is discussing ways of improving its already excellent sound system by using AirPlay instead of Bluetooth.Twitter user ShibaDoge proposed last week that Tesla use AirPlay for lossless audio streaming. Tesla CEO Elon Musk responded, stating that he'd discuss the idea (and other improvements) with Tesla's audio engineering team.",
            "rights": "gizmodo.com.au",
            "rank": 4519,
            "topic": "tech",
            "country": "AU",
            "language": "en",
            "authors": ["Phillip Tracy"],
            "media": "https://www.gizmodo.com.au/wp-content/uploads/sites/2/2022/06/01/05075a315f40b6769a4886ceb79b143b.jpg?quality=80&resize=1280,720",
            "is_opinion": false,
            "twitter_account": "@GizmodoAU",
            "_score": 18.9377,
            "_id": "5e11b228e8f6d4f01defa1970348c72a"
        }
    ],
    "user_input": {
        "q": "tesla apple",
        "search_in": ["title_summary_en"],
        "lang": ["en"],
        "not_lang": null,
        "countries": null,
        "not_countries": null,
        "from": "2022-05-29 00:00:00",
        "to": null,
        "ranked_only": "True",
        "from_rank": null,
        "to_rank": null,
        "sort_by": "relevancy",
        "page": 1,
        "size": 10,
        "sources": null,
        "not_sources": null,
        "topic": null,
        "published_date_precision": null
    }
}
